^C:\SOURCES\CSMATIO\CSMATIO\DEMO\MAIN.RESX|C:\SOURCES\CSMATIO\CSMATIO\DEMO\PROPERTIES\RESOURCES.RESX
C:\SOURCES\CSMATIO\CSMATIO\DEMO\OBJ\RELEASE\CSMATIOTEST.MAIN.RESOURCES
C:\SOURCES\CSMATIO\CSMATIO\DEMO\OBJ\RELEASE\CSMATIOTEST.PROPERTIES.RESOURCES.RESOURCES
