^D:\OREN\PROJECTS\SOCIALMICE\SOCIETY\SOURCE\GMFBRIDGE\GMFBRIDGE\STDAFX.CPP
D:\OREN\PROJECTS\SOCIALMICE\SOCIETY\SOURCE\GMFBRIDGE\GMFBRIDGE\RELEASE\GMFBRIDGE.PCH
D:\OREN\PROJECTS\SOCIALMICE\SOCIETY\SOURCE\GMFBRIDGE\GMFBRIDGE\RELEASE\STDAFX.OBJ
D:\OREN\PROJECTS\SOCIALMICE\SOCIETY\SOURCE\GMFBRIDGE\GMFBRIDGE\RELEASE\VC100.PDB
^D:\OREN\PROJECTS\SOCIALMICE\SOCIETY\SOURCE\GMFBRIDGE\GMFBRIDGE\BRIDGE.CPP|D:\OREN\PROJECTS\SOCIALMICE\SOCIETY\SOURCE\GMFBRIDGE\GMFBRIDGE\CP.CPP|D:\OREN\PROJECTS\SOCIALMICE\SOCIETY\SOURCE\GMFBRIDGE\GMFBRIDGE\GMFBRIDGE.CPP|D:\OREN\PROJECTS\SOCIALMICE\SOCIETY\SOURCE\GMFBRIDGE\GMFBRIDGE\SINK.CPP|D:\OREN\PROJECTS\SOCIALMICE\SOCIETY\SOURCE\GMFBRIDGE\GMFBRIDGE\SOURCE.CPP
D:\OREN\PROJECTS\SOCIALMICE\SOCIETY\SOURCE\GMFBRIDGE\GMFBRIDGE\RELEASE\SOURCE.OBJ
D:\OREN\PROJECTS\SOCIALMICE\SOCIETY\SOURCE\GMFBRIDGE\GMFBRIDGE\RELEASE\SINK.OBJ
D:\OREN\PROJECTS\SOCIALMICE\SOCIETY\SOURCE\GMFBRIDGE\GMFBRIDGE\RELEASE\GMFBRIDGE.OBJ
D:\OREN\PROJECTS\SOCIALMICE\SOCIETY\SOURCE\GMFBRIDGE\GMFBRIDGE\RELEASE\CP.OBJ
D:\OREN\PROJECTS\SOCIALMICE\SOCIETY\SOURCE\GMFBRIDGE\GMFBRIDGE\RELEASE\BRIDGE.OBJ
^D:\OREN\PROJECTS\SOCIALMICE\SOCIETY\SOURCE\GMFBRIDGE\GMFBRIDGE\BRIDGE.CPP
D:\OREN\PROJECTS\SOCIALMICE\SOCIETY\SOURCE\GMFBRIDGE\GMFBRIDGE\RELEASE\VC100.PDB
^D:\OREN\PROJECTS\SOCIALMICE\SOCIETY\SOURCE\GMFBRIDGE\GMFBRIDGE\CP.CPP
D:\OREN\PROJECTS\SOCIALMICE\SOCIETY\SOURCE\GMFBRIDGE\GMFBRIDGE\RELEASE\VC100.PDB
^D:\OREN\PROJECTS\SOCIALMICE\SOCIETY\SOURCE\GMFBRIDGE\GMFBRIDGE\GMFBRIDGE.CPP
D:\OREN\PROJECTS\SOCIALMICE\SOCIETY\SOURCE\GMFBRIDGE\GMFBRIDGE\RELEASE\VC100.PDB
^D:\OREN\PROJECTS\SOCIALMICE\SOCIETY\SOURCE\GMFBRIDGE\GMFBRIDGE\SINK.CPP
D:\OREN\PROJECTS\SOCIALMICE\SOCIETY\SOURCE\GMFBRIDGE\GMFBRIDGE\RELEASE\VC100.PDB
^D:\OREN\PROJECTS\SOCIALMICE\SOCIETY\SOURCE\GMFBRIDGE\GMFBRIDGE\SOURCE.CPP
D:\OREN\PROJECTS\SOCIALMICE\SOCIETY\SOURCE\GMFBRIDGE\GMFBRIDGE\RELEASE\VC100.PDB
