^D:\OREN\PROJECTS\SOCIALMICE\SOCIETY\SOURCE\GMFBRIDGE\GMFBRIDGE\GMFBRIDGE.IDL
D:\OREN\PROJECTS\SOCIALMICE\SOCIETY\SOURCE\GMFBRIDGE\GMFBRIDGE\GMFBRIDGE.TLB
D:\OREN\PROJECTS\SOCIALMICE\SOCIETY\SOURCE\GMFBRIDGE\GMFBRIDGE\GMFBRIDGE_P.C
D:\OREN\PROJECTS\SOCIALMICE\SOCIETY\SOURCE\GMFBRIDGE\GMFBRIDGE\GMFBRIDGE_I.C
D:\OREN\PROJECTS\SOCIALMICE\SOCIETY\SOURCE\GMFBRIDGE\GMFBRIDGE\GMFBRIDGE_H.H
