^D:\OREN\PROJECTS\SOCIALMICE\SOCIALCAMERA\COPYFILEDIALOG\FORM1.RESX|D:\OREN\PROJECTS\SOCIALMICE\SOCIALCAMERA\COPYFILEDIALOG\PROPERTIES\RESOURCES.RESX
D:\OREN\PROJECTS\SOCIALMICE\SOCIALCAMERA\COPYFILEDIALOG\OBJ\X86\RELEASE\COPYFILEDIALOG.FORM1.RESOURCES
D:\OREN\PROJECTS\SOCIALMICE\SOCIALCAMERA\COPYFILEDIALOG\OBJ\X86\RELEASE\COPYFILEDIALOG.PROPERTIES.RESOURCES.RESOURCES
