^D:\OREN\PROJECTS\SOCIALMICE\SOCIETY\SOURCE\GMFBRIDGE\GMFBRIDGE\GMFBRIDGE.RC
/D _VC80_UPGRADE=0x0710 /l"0x0409" /nologo /fo"Debug\GMFBridge.res" GMFBridge.rc /D _VC80_UPGRADE=0x0710 /l"0x0409" /nologo /fo"Debug\GMFBridge.res" D:\OREN\PROJECTS\SOCIALMICE\SOCIETY\SOURCE\GMFBRIDGE\GMFBRIDGE\GMFBRIDGE.RC
^D:\OREN\PROJECTS\SOCIALMICE\SOCIETY\SOURCE\GMFBRIDGE\GMFBRIDGE\DEBUG\GMFBRIDGE_MANIFEST.RC
/nologo /fo"Debug\GMFBridge.dll.embed.manifest.res" Debug\GMFBridge_manifest.rc /nologo /fo"Debug\GMFBridge.dll.embed.manifest.res" D:\OREN\PROJECTS\SOCIALMICE\SOCIETY\SOURCE\GMFBRIDGE\GMFBRIDGE\DEBUG\GMFBRIDGE_MANIFEST.RC
