^D:\OREN\PROJECTS\SOCIALMICE\SOCIETY\SOURCE\GMFBRIDGE\GMFBRIDGE\GMFBRIDGE.RC
D:\OREN\PROJECTS\SOCIALMICE\SOCIETY\SOURCE\GMFBRIDGE\GMFBRIDGE\RESOURCE.H
C:\PROGRAM FILES\MICROSOFT VISUAL STUDIO 10.0\VC\ATLMFC\INCLUDE\AFXRES.H
C:\PROGRAM FILES\MICROSOFT VISUAL STUDIO 10.0\VC\ATLMFC\INCLUDE\WINRES.H
C:\PROGRAM FILES\MICROSOFT SDKS\WINDOWS\V7.0A\INCLUDE\WINRESRC.H
C:\PROGRAM FILES\MICROSOFT SDKS\WINDOWS\V7.0A\INCLUDE\WINUSER.RH
C:\PROGRAM FILES\MICROSOFT SDKS\WINDOWS\V7.0A\INCLUDE\COMMCTRL.RH
C:\PROGRAM FILES\MICROSOFT SDKS\WINDOWS\V7.0A\INCLUDE\DDE.RH
C:\PROGRAM FILES\MICROSOFT SDKS\WINDOWS\V7.0A\INCLUDE\WINNT.RH
C:\PROGRAM FILES\MICROSOFT SDKS\WINDOWS\V7.0A\INCLUDE\DLGS.H
C:\PROGRAM FILES\MICROSOFT SDKS\WINDOWS\V7.0A\INCLUDE\WINVER.H
C:\PROGRAM FILES\MICROSOFT SDKS\WINDOWS\V7.0A\INCLUDE\SPECSTRINGS.H
C:\PROGRAM FILES\MICROSOFT SDKS\WINDOWS\V7.0A\INCLUDE\SAL_SUPP.H
C:\PROGRAM FILES\MICROSOFT SDKS\WINDOWS\V7.0A\INCLUDE\SPECSTRINGS_SUPP.H
C:\PROGRAM FILES\MICROSOFT VISUAL STUDIO 10.0\VC\INCLUDE\SAL.H
C:\PROGRAM FILES\MICROSOFT SDKS\WINDOWS\V7.0A\INCLUDE\DRIVERSPECS.H
C:\PROGRAM FILES\MICROSOFT SDKS\WINDOWS\V7.0A\INCLUDE\SDV_DRIVERSPECS.H
C:\PROGRAM FILES\MICROSOFT SDKS\WINDOWS\V7.0A\INCLUDE\VERRSRC.H
D:\OREN\PROJECTS\SOCIALMICE\SOCIETY\SOURCE\GMFBRIDGE\GMFBRIDGE\GMFBRIDGE.TLB
^D:\OREN\PROJECTS\SOCIALMICE\SOCIETY\SOURCE\GMFBRIDGE\GMFBRIDGE\DEBUG\GMFBRIDGE_MANIFEST.RC
D:\OREN\PROJECTS\SOCIALMICE\SOCIETY\SOURCE\GMFBRIDGE\GMFBRIDGE\DEBUG\GMFBRIDGE.DLL.EMBED.MANIFEST
